<svg width="16" height="16" viewBox="0 0 16 16" fill="none" xmlns="http://www.w3.org/2000/svg">
	<path d="M10.2734 4.94L9.33337 4L5.33337 8L9.33337 12L10.2734 11.06L7.22004 8L10.2734 4.94Z" fill="#434960"/>
</svg>
