<svg width="20" height="20" viewBox="0 0 20 20" fill="none" xmlns="http://www.w3.org/2000/svg">
	<path d="M18 10L14.2287 13.7713L13.286 12.8287L16.1147 10L13.286 7.17133L14.2287 6.22867L18 10ZM3.88533 10L6.714 12.8287L5.77133 13.7713L2 10L5.77133 6.22867L6.71333 7.17133L3.88533 10ZM8.52533 16H7.10667L11.4747 4H12.8933L8.52533 16Z" fill="white"/>
</svg>
